<?xml version="1.0" encoding="UTF-8" standalone="yes"?>
<eagle version="9.5.1">
<drawing>
<settings>
<setting alwaysvectorfont="no"/>
<setting keepoldvectorfont="yes"/>
<setting verticaltext="up"/>
</settings>
<grid distance="0.1" unitdist="inch" unit="mil" style="lines" multiple="1" display="no" altdistance="0.01" altunitdist="inch" altunit="inch"/>
<layers>
<layer number="1" name="Top" color="4" fill="1" visible="yes" active="yes"/>
<layer number="16" name="Bottom" color="1" fill="1" visible="yes" active="yes"/>
<layer number="17" name="Pads" color="2" fill="1" visible="yes" active="yes"/>
<layer number="18" name="Vias" color="2" fill="1" visible="no" active="yes"/>
<layer number="19" name="Unrouted" color="6" fill="1" visible="no" active="yes"/>
<layer number="20" name="Dimension" color="15" fill="1" visible="yes" active="yes"/>
<layer number="21" name="tPlace" color="7" fill="1" visible="yes" active="yes"/>
<layer number="22" name="bPlace" color="7" fill="1" visible="no" active="yes"/>
<layer number="23" name="tOrigins" color="15" fill="1" visible="yes" active="yes"/>
<layer number="24" name="bOrigins" color="15" fill="1" visible="no" active="yes"/>
<layer number="25" name="tNames" color="7" fill="1" visible="yes" active="yes"/>
<layer number="26" name="bNames" color="7" fill="1" visible="no" active="yes"/>
<layer number="27" name="tValues" color="7" fill="1" visible="yes" active="yes"/>
<layer number="28" name="bValues" color="7" fill="1" visible="no" active="yes"/>
<layer number="29" name="tStop" color="7" fill="3" visible="no" active="yes"/>
<layer number="30" name="bStop" color="7" fill="6" visible="no" active="yes"/>
<layer number="31" name="tCream" color="7" fill="4" visible="no" active="yes"/>
<layer number="32" name="bCream" color="7" fill="5" visible="no" active="yes"/>
<layer number="33" name="tFinish" color="6" fill="3" visible="no" active="yes"/>
<layer number="34" name="bFinish" color="6" fill="6" visible="no" active="yes"/>
<layer number="35" name="tGlue" color="7" fill="4" visible="no" active="yes"/>
<layer number="36" name="bGlue" color="7" fill="5" visible="no" active="yes"/>
<layer number="37" name="tTest" color="7" fill="1" visible="no" active="yes"/>
<layer number="38" name="bTest" color="7" fill="1" visible="no" active="yes"/>
<layer number="39" name="tKeepout" color="4" fill="11" visible="no" active="yes"/>
<layer number="40" name="bKeepout" color="1" fill="11" visible="no" active="yes"/>
<layer number="41" name="tRestrict" color="4" fill="10" visible="no" active="yes"/>
<layer number="42" name="bRestrict" color="1" fill="10" visible="no" active="yes"/>
<layer number="43" name="vRestrict" color="2" fill="10" visible="no" active="yes"/>
<layer number="44" name="Drills" color="7" fill="1" visible="no" active="yes"/>
<layer number="45" name="Holes" color="7" fill="1" visible="no" active="yes"/>
<layer number="46" name="Milling" color="3" fill="1" visible="yes" active="yes"/>
<layer number="47" name="Measures" color="7" fill="1" visible="no" active="yes"/>
<layer number="48" name="Document" color="7" fill="1" visible="no" active="yes"/>
<layer number="49" name="Reference" color="7" fill="1" visible="no" active="yes"/>
<layer number="51" name="tDocu" color="7" fill="1" visible="yes" active="yes"/>
<layer number="52" name="bDocu" color="7" fill="1" visible="no" active="yes"/>
<layer number="91" name="Nets" color="2" fill="1" visible="yes" active="yes"/>
<layer number="92" name="Busses" color="1" fill="1" visible="yes" active="yes"/>
<layer number="93" name="Pins" color="2" fill="1" visible="yes" active="yes"/>
<layer number="94" name="Symbols" color="4" fill="1" visible="yes" active="yes"/>
<layer number="95" name="Names" color="7" fill="1" visible="yes" active="yes"/>
<layer number="96" name="Values" color="7" fill="1" visible="yes" active="yes"/>
<layer number="97" name="Info" color="7" fill="1" visible="yes" active="yes"/>
<layer number="98" name="Guide" color="6" fill="1" visible="yes" active="yes"/>
<layer number="4" name="Route4" color="1" fill="4" visible="no" active="no"/>
<layer number="5" name="Route5" color="4" fill="4" visible="no" active="no"/>
<layer number="6" name="Route6" color="1" fill="8" visible="no" active="no"/>
<layer number="7" name="Route7" color="4" fill="8" visible="no" active="no"/>
<layer number="8" name="Route8" color="1" fill="2" visible="no" active="no"/>
<layer number="9" name="Route9" color="4" fill="2" visible="no" active="no"/>
<layer number="10" name="Route10" color="1" fill="7" visible="no" active="no"/>
<layer number="11" name="Route11" color="4" fill="7" visible="no" active="no"/>
<layer number="12" name="Route12" color="1" fill="5" visible="no" active="no"/>
<layer number="13" name="Route13" color="4" fill="5" visible="no" active="no"/>
<layer number="14" name="Route14" color="1" fill="6" visible="no" active="no"/>
<layer number="15" name="Route15" color="4" fill="6" visible="no" active="no"/>
<layer number="2" name="Route2" color="1" fill="3" visible="no" active="no"/>
<layer number="3" name="Route3" color="4" fill="3" visible="no" active="no"/>
</layers>
<library>
<packages>
<package name="T05A_TEX" urn="urn:adsk.eagle:footprint:1/1">
<pad name="1" x="0" y="0" drill="1.0922" diameter="1.6002" shape="round" rot="R0"/>
<pad name="2" x="1.7018" y="0" drill="1.0922" diameter="1.6002" shape="round" rot="R0"/>
<pad name="3" x="3.4036" y="0" drill="1.0922" diameter="1.6002" shape="round" rot="R0"/>
<pad name="4" x="5.1054" y="0" drill="1.0922" diameter="1.6002" shape="round" rot="R0"/>
<pad name="5" x="6.8072" y="0" drill="1.0922" diameter="1.6002" shape="round" rot="R0"/>
<wire x1="-1.9939" y1="-1.9685" x2="8.8011" y2="-1.9685" width=".1524" layer="21"/> 
<wire x1="8.8011" y1="-1.9685" x2="8.8011" y2="2.9845" width=".1524" layer="21"/> 
<wire x1="8.8011" y1="2.9845" x2="-1.9939" y2="2.9845" width=".1524" layer="21"/> 
<wire x1="-1.9939" y1="2.9845" x2="-1.9939" y2="-1.9685" width=".1524" layer="21"/> 
<wire x1="-3.5687" y1="0" x2="-3.9751" y2="0" width=".1524" layer="21" curve="-180"/>
<wire x1="-3.9751" y1="0" x2="-3.5687" y2="0" width=".1524" layer="21" curve="-180"/>
<wire x1="-.254" y1="0" x2=".254" y2="0" width=".1524" layer="51"/> 
<wire x1="0" y1="-.254" x2="0" y2=".254" width=".1524" layer="51"/> 
<wire x1="-1.8669" y1="-1.8415" x2="8.6741" y2="-1.8415" width=".1524" layer="51"/> 
<wire x1="8.6741" y1="-1.8415" x2="8.6741" y2="2.8575" width=".1524" layer="51"/> 
<wire x1="8.6741" y1="2.8575" x2="-1.8669" y2="2.8575" width=".1524" layer="51"/> 
<wire x1="-1.8669" y1="2.8575" x2="-1.8669" y2="-1.8415" width=".1524" layer="51"/> 
<wire x1="-1.1557" y1="0" x2="-1.5621" y2="0" width="0" layer="51" curve="-180"/>
<wire x1="-1.5621" y1="0" x2="-1.1557" y2="0" width="0" layer="51" curve="-180"/>
<text x=".1324" y="-.127" size="1.27" layer="25" ratio="6" rot="R0">&gt;Name</text>
<text x="1.6748" y="-.127" size="1.27" layer="27" ratio="6" rot="R0">&gt;Value</text>
</package>
</packages>
<symbols>
<symbol name="LM2576T-5_0_1" urn="urn:adsk.eagle:symbol:2/1">
<pin name="VIN" x="2.54" y="0" visible="both" length="middle" direction="pwr" function="none" swaplevel="0" rot="R0"/>
<pin name="OUT" x="2.54" y="-2.54" visible="both" length="middle" direction="pwr" function="none" swaplevel="0" rot="R0"/>
<pin name="GND" x="63.5" y="-5.08" visible="both" length="middle" direction="pwr" function="none" swaplevel="0" rot="R180"/>
<pin name="FB" x="63.5" y="-2.54" visible="both" length="middle" direction="in" function="none" swaplevel="0" rot="R180"/>
<pin name="~ON~/OFF" x="63.5" y="0" visible="both" length="middle" direction="in" function="none" swaplevel="0" rot="R180"/>
<wire x1="7.62" y1="5.08" x2="7.62" y2="-10.16" width=".1524" layer="94"/> 
<wire x1="7.62" y1="-10.16" x2="58.42" y2="-10.16" width=".1524" layer="94"/> 
<wire x1="58.42" y1="-10.16" x2="58.42" y2="5.08" width=".1524" layer="94"/> 
<wire x1="58.42" y1="5.08" x2="7.62" y2="5.08" width=".1524" layer="94"/> 
<text x="28.2946" y="9.1186" size="2.083" layer="95" ratio="6" rot="R0">&gt;Name</text>
<text x="27.6552" y="6.5786" size="2.083" layer="96" ratio="6" rot="R0">&gt;Value</text>
</symbol>
</symbols>
<devicesets>
<deviceset name="LM2576T-ADJ/LF03" prefix="U" urn="urn:adsk.eagle:component:3/1">
<gates>
<gate name="A" symbol="LM2576T-5_0_1" x="0" y="0"/>
</gates>
<devices>
<device name="T05A_TEX" package="T05A_TEX">
<connects>
<connect gate="A" pin="VIN" pad="1"/>
<connect gate="A" pin="OUT" pad="2"/>
<connect gate="A" pin="GND" pad="3"/>
<connect gate="A" pin="FB" pad="4"/>
<connect gate="A" pin="~ON~/OFF" pad="5"/>
</connects>
<technologies>
<technology name="">
<attribute name="Copyright" value="Copyright (C) 2021 Ultra Librarian. All rights reserved." constant="no"/>
<attribute name="Mfr_Name" value="Texas Instruments" constant="no"/>
<attribute name="Manufacturer_Part_Number" value="LM2576T-ADJ/LF03" constant="no"/>
<attribute name="Digi-Key_Part_Number_1" value="296-35127-5-ND" constant="no"/>
<attribute name="Digi-Key_Part_Number_2" value="2156-LM2576T-ADJ/LF03-ND" constant="no"/>
</technology>
</technologies>
</device>
</devices>
</deviceset>
</devicesets>
</library>
</drawing>
</eagle>
