<?xml version="1.0" encoding="utf-8"?>
<!DOCTYPE eagle SYSTEM "eagle.dtd">
<eagle version="9.6.2">
<drawing>
<settings>
<setting alwaysvectorfont="no"/>
<setting verticaltext="up"/>
</settings>
<grid distance="50" unitdist="mil" unit="mil" style="lines" multiple="1" display="yes" altdistance="5" altunitdist="mil" altunit="mil"/>
<layers>
<layer number="1" name="Top" color="4" fill="1" visible="yes" active="yes"/>
<layer number="16" name="Bottom" color="1" fill="1" visible="yes" active="yes"/>
<layer number="17" name="Pads" color="2" fill="1" visible="yes" active="yes"/>
<layer number="18" name="Vias" color="2" fill="1" visible="yes" active="yes"/>
<layer number="19" name="Unrouted" color="6" fill="1" visible="yes" active="yes"/>
<layer number="20" name="Dimension" color="24" fill="1" visible="yes" active="yes"/>
<layer number="21" name="tPlace" color="7" fill="1" visible="yes" active="yes"/>
<layer number="22" name="bPlace" color="7" fill="1" visible="yes" active="yes"/>
<layer number="23" name="tOrigins" color="15" fill="1" visible="yes" active="yes"/>
<layer number="24" name="bOrigins" color="15" fill="1" visible="yes" active="yes"/>
<layer number="25" name="tNames" color="7" fill="1" visible="yes" active="yes"/>
<layer number="26" name="bNames" color="7" fill="1" visible="yes" active="yes"/>
<layer number="27" name="tValues" color="7" fill="1" visible="yes" active="yes"/>
<layer number="28" name="bValues" color="7" fill="1" visible="yes" active="yes"/>
<layer number="29" name="tStop" color="7" fill="3" visible="no" active="yes"/>
<layer number="30" name="bStop" color="7" fill="6" visible="no" active="yes"/>
<layer number="31" name="tCream" color="7" fill="4" visible="no" active="yes"/>
<layer number="32" name="bCream" color="7" fill="5" visible="no" active="yes"/>
<layer number="33" name="tFinish" color="6" fill="3" visible="no" active="yes"/>
<layer number="34" name="bFinish" color="6" fill="6" visible="no" active="yes"/>
<layer number="35" name="tGlue" color="7" fill="4" visible="no" active="yes"/>
<layer number="36" name="bGlue" color="7" fill="5" visible="no" active="yes"/>
<layer number="37" name="tTest" color="7" fill="1" visible="no" active="yes"/>
<layer number="38" name="bTest" color="7" fill="1" visible="no" active="yes"/>
<layer number="39" name="tKeepout" color="4" fill="11" visible="yes" active="yes"/>
<layer number="40" name="bKeepout" color="1" fill="11" visible="yes" active="yes"/>
<layer number="41" name="tRestrict" color="4" fill="10" visible="yes" active="yes"/>
<layer number="42" name="bRestrict" color="1" fill="10" visible="yes" active="yes"/>
<layer number="43" name="vRestrict" color="2" fill="10" visible="yes" active="yes"/>
<layer number="44" name="Drills" color="7" fill="1" visible="no" active="yes"/>
<layer number="45" name="Holes" color="7" fill="1" visible="no" active="yes"/>
<layer number="46" name="Milling" color="3" fill="1" visible="no" active="yes"/>
<layer number="47" name="Measures" color="7" fill="1" visible="no" active="yes"/>
<layer number="48" name="Document" color="7" fill="1" visible="yes" active="yes"/>
<layer number="49" name="Reference" color="7" fill="1" visible="yes" active="yes"/>
<layer number="51" name="tDocu" color="7" fill="1" visible="yes" active="yes"/>
<layer number="52" name="bDocu" color="7" fill="1" visible="yes" active="yes"/>
<layer number="88" name="SimResults" color="9" fill="1" visible="yes" active="yes"/>
<layer number="89" name="SimProbes" color="9" fill="1" visible="yes" active="yes"/>
<layer number="90" name="Modules" color="5" fill="1" visible="yes" active="yes"/>
<layer number="91" name="Nets" color="2" fill="1" visible="yes" active="yes"/>
<layer number="92" name="Busses" color="1" fill="1" visible="yes" active="yes"/>
<layer number="93" name="Pins" color="2" fill="1" visible="yes" active="yes"/>
<layer number="94" name="Symbols" color="4" fill="1" visible="yes" active="yes"/>
<layer number="95" name="Names" color="7" fill="1" visible="yes" active="yes"/>
<layer number="96" name="Values" color="7" fill="1" visible="yes" active="yes"/>
<layer number="97" name="Info" color="7" fill="1" visible="yes" active="yes"/>
<layer number="98" name="Guide" color="6" fill="1" visible="yes" active="yes"/>
</layers>
<library>
<packages>
<package name="NF123G-302">
<pad name="P$1" x="0" y="0" drill="1"/>
<pad name="P$2" x="12.5" y="0" drill="1"/>
<wire x1="0" y1="0" x2="2" y2="0" width="0.127" layer="21"/>
<wire x1="2" y1="0" x2="2" y2="2" width="0.127" layer="21"/>
<wire x1="2" y1="0" x2="2" y2="-2" width="0.127" layer="21"/>
<wire x1="2" y1="-2" x2="4" y2="-2" width="0.127" layer="21"/>
<wire x1="2" y1="2" x2="4" y2="2" width="0.127" layer="21"/>
<wire x1="12.5" y1="0" x2="10.5" y2="0" width="0.127" layer="21"/>
<wire x1="10.5" y1="0" x2="10.5" y2="2" width="0.127" layer="21"/>
<wire x1="10.5" y1="2" x2="9" y2="2" width="0.127" layer="21"/>
<wire x1="10.5" y1="0" x2="10.5" y2="-2" width="0.127" layer="21"/>
<wire x1="10.5" y1="-2" x2="9" y2="-2" width="0.127" layer="21"/>
<circle x="6.5" y="0" radius="10.01798125" width="0.127" layer="21"/>
<circle x="6.5" y="0" radius="3.11448125" width="0.127" layer="21"/>
<text x="5.8" y="-0.6" size="1.27" layer="21">M</text>
</package>
<package name="CPF11K0000FKEE6-R1">
<pad name="P$1" x="0" y="0" drill="0.7"/>
<pad name="P$2" x="7" y="0" drill="0.7"/>
<wire x1="5.715" y1="0" x2="7" y2="0" width="0.127" layer="21"/>
<wire x1="0" y1="0" x2="1.905" y2="0" width="0.127" layer="21"/>
<wire x1="1.905" y1="0" x2="2.54" y2="1.27" width="0.127" layer="21"/>
<wire x1="2.54" y1="1.27" x2="3.175" y2="-1.27" width="0.127" layer="21"/>
<wire x1="3.175" y1="-1.27" x2="3.81" y2="1.27" width="0.127" layer="21"/>
<wire x1="3.81" y1="1.27" x2="4.445" y2="-1.27" width="0.127" layer="21"/>
<wire x1="4.445" y1="-1.27" x2="5.08" y2="1.27" width="0.127" layer="21"/>
<wire x1="5.08" y1="1.27" x2="5.715" y2="0" width="0.127" layer="21"/>
</package>
<package name="CF18JT6K20CT">
<pad name="P$1" x="0" y="0" drill="0.5"/>
<pad name="P$2" x="4" y="0" drill="0.5"/>
<wire x1="0" y1="0" x2="0.5" y2="0" width="0.127" layer="21"/>
<wire x1="0.5" y1="0" x2="1" y2="1" width="0.127" layer="21"/>
<wire x1="1" y1="1" x2="1.5" y2="-1" width="0.127" layer="21"/>
<wire x1="1.5" y1="-1" x2="2" y2="1" width="0.127" layer="21"/>
<wire x1="2" y1="1" x2="2.5" y2="-1" width="0.127" layer="21"/>
<wire x1="2.5" y1="-1" x2="3" y2="1" width="0.127" layer="21"/>
<wire x1="3" y1="1" x2="3.4" y2="0" width="0.127" layer="21"/>
<wire x1="3.4" y1="0" x2="4" y2="0" width="0.127" layer="21"/>
</package>
<package name="1N5820">
<pad name="P$1" x="0" y="0" drill="1.3"/>
<pad name="P$2" x="9" y="0" drill="1.3"/>
<wire x1="0" y1="0" x2="4" y2="0" width="0.127" layer="21"/>
<wire x1="4" y1="0" x2="4" y2="2" width="0.127" layer="21"/>
<wire x1="4" y1="2" x2="6" y2="0" width="0.127" layer="21"/>
<wire x1="6" y1="0" x2="4" y2="-2" width="0.127" layer="21"/>
<wire x1="4" y1="-2" x2="4" y2="0" width="0.127" layer="21"/>
<wire x1="6" y1="0" x2="6" y2="2" width="0.127" layer="21"/>
<wire x1="6" y1="2" x2="5.3" y2="2" width="0.127" layer="21"/>
<wire x1="6" y1="0" x2="6" y2="-2" width="0.127" layer="21"/>
<wire x1="6" y1="-2" x2="6.6" y2="-2" width="0.127" layer="21"/>
<wire x1="6.6" y1="-2" x2="6.6" y2="-1.5" width="0.127" layer="21"/>
<wire x1="6" y1="0" x2="9" y2="0" width="0.127" layer="21"/>
<wire x1="5.3" y1="2" x2="5.3" y2="1.5" width="0.127" layer="21"/>
<text x="2.032" y="0.635" size="1.27" layer="21">+</text>
<text x="7.366" y="0.762" size="1.27" layer="21">-</text>
</package>
<package name="1572-1039-CIN">
<pad name="P$1" x="0" y="0" drill="1"/>
<pad name="P$2" x="2" y="0" drill="1"/>
<circle x="1" y="0" radius="5" width="0.127" layer="21"/>
<wire x1="0" y1="0" x2="0.6" y2="0" width="0.127" layer="21"/>
<wire x1="0.6" y1="0" x2="0.6" y2="1" width="0.127" layer="21"/>
<wire x1="0.6" y1="0" x2="0.6" y2="-1" width="0.127" layer="21"/>
<wire x1="2" y1="-1" x2="1" y2="0" width="0.127" layer="21" curve="-90"/>
<wire x1="1" y1="0" x2="2" y2="1" width="0.127" layer="21" curve="-90"/>
<wire x1="1" y1="0" x2="2" y2="0" width="0.127" layer="21"/>
<text x="0" y="0.8" size="0.6096" layer="21">+</text>
</package>
<package name="M10144">
<pad name="P$1" x="0" y="0" drill="0.6"/>
<pad name="P$2" x="7.5" y="0" drill="0.6"/>
<wire x1="0" y1="0" x2="1.5" y2="0" width="0.127" layer="21"/>
<wire x1="7.5" y1="0" x2="6.7" y2="0" width="0.127" layer="21"/>
<wire x1="1.5" y1="0" x2="2.4" y2="0.9" width="0.127" layer="21" curve="-90"/>
<wire x1="2.4" y1="0.9" x2="2.5" y2="0.9" width="0.127" layer="21"/>
<wire x1="2.5" y1="0.9" x2="3.2" y2="0.2" width="0.127" layer="21" curve="-90"/>
<wire x1="3.2" y1="0.2" x2="3.2" y2="0" width="0.127" layer="21"/>
<wire x1="3.2" y1="0" x2="4.1" y2="0.9" width="0.127" layer="21" curve="-90"/>
<wire x1="4.1" y1="0.9" x2="4.2" y2="0.9" width="0.127" layer="21"/>
<wire x1="4.2" y1="0.9" x2="4.8" y2="0.3" width="0.127" layer="21" curve="-90"/>
<wire x1="4.8" y1="0.3" x2="4.8" y2="0" width="0.127" layer="21"/>
<wire x1="4.8" y1="0" x2="5.7" y2="0.9" width="0.127" layer="21" curve="-90"/>
<wire x1="5.7" y1="0.9" x2="6" y2="0.9" width="0.127" layer="21"/>
<wire x1="6" y1="0.9" x2="6.7" y2="0.2" width="0.127" layer="21" curve="-90"/>
<wire x1="6.7" y1="0.2" x2="6.7" y2="0" width="0.127" layer="21"/>
</package>
<package name="1572-1055-COUT">
<pad name="P$1" x="0" y="0" drill="0.9"/>
<pad name="P$2" x="8" y="0" drill="0.9"/>
<circle x="4" y="0" radius="8" width="0.127" layer="21"/>
<wire x1="0" y1="0" x2="1.4" y2="0" width="0.127" layer="21"/>
<wire x1="1.5" y1="0" x2="3" y2="0" width="0.127" layer="21"/>
<wire x1="3" y1="0" x2="3" y2="-1" width="0.127" layer="21"/>
<wire x1="3" y1="0" x2="3" y2="1" width="0.127" layer="21"/>
<wire x1="4.6" y1="-1" x2="3.6" y2="0" width="0.127" layer="21" curve="-90"/>
<wire x1="3.6" y1="0" x2="4.6" y2="1" width="0.127" layer="21" curve="-90"/>
<wire x1="3.6" y1="0" x2="8.1" y2="0" width="0.127" layer="21"/>
<text x="1.5" y="0.4" size="1.27" layer="21">+</text>
</package>
<package name="+-">
<pad name="P$1" x="0" y="0" drill="1"/>
<pad name="P$2" x="5" y="0" drill="1"/>
<text x="-1.27" y="0.508" size="1.27" layer="25">+</text>
<text x="3.937" y="0.508" size="1.27" layer="25">-</text>
</package>
</packages>
<symbols>
<symbol name="NF123G-302">
<wire x1="-2" y1="1" x2="-4" y2="1" width="0.254" layer="94"/>
<wire x1="-4" y1="1" x2="-4" y2="-1" width="0.254" layer="94"/>
<wire x1="-4" y1="-1" x2="-2" y2="-1" width="0.254" layer="94"/>
<wire x1="2" y1="1" x2="4" y2="1" width="0.254" layer="94"/>
<wire x1="4" y1="1" x2="4" y2="-1" width="0.254" layer="94"/>
<wire x1="4" y1="-1" x2="2" y2="-1" width="0.254" layer="94"/>
<circle x="0" y="0" radius="2.236065625" width="0.254" layer="94"/>
<text x="-1" y="-0.8" size="1.778" layer="94">M</text>
<pin name="P$1" x="-9" y="0" length="middle"/>
<pin name="P$2" x="9" y="0" length="middle" rot="R180"/>
<text x="-3.5" y="-0.6" size="1.27" layer="94">+</text>
<text x="2.7" y="-0.5" size="1.27" layer="94">-</text>
</symbol>
<symbol name="CPF11K0000FKEE6-R1">
<wire x1="0" y1="0" x2="1" y2="0" width="0.254" layer="94"/>
<wire x1="1" y1="0" x2="1.5" y2="0.9" width="0.254" layer="94"/>
<wire x1="1.5" y1="0.9" x2="2" y2="-1" width="0.254" layer="94"/>
<wire x1="2" y1="-1" x2="2.5" y2="0.9" width="0.254" layer="94"/>
<wire x1="2.5" y1="0.9" x2="3" y2="-1" width="0.254" layer="94"/>
<wire x1="3" y1="-1" x2="3.5" y2="0.9" width="0.254" layer="94"/>
<wire x1="3.5" y1="0.9" x2="4" y2="-1" width="0.254" layer="94"/>
<wire x1="4" y1="-1" x2="4.5" y2="0.9" width="0.254" layer="94"/>
<wire x1="4.5" y1="0.9" x2="4.9" y2="0" width="0.254" layer="94"/>
<wire x1="4.9" y1="0" x2="6.1" y2="0" width="0.254" layer="94"/>
<pin name="P$1" x="-4" y="0" length="middle"/>
<pin name="P$2" x="10" y="0" length="middle" rot="R180"/>
</symbol>
<symbol name="CF18JT6K20CT-R2">
<wire x1="0" y1="0" x2="1" y2="0" width="0.254" layer="94"/>
<wire x1="1" y1="0" x2="1.5" y2="0.9" width="0.254" layer="94"/>
<wire x1="1.5" y1="0.9" x2="2" y2="-1" width="0.254" layer="94"/>
<wire x1="2" y1="-1" x2="2.6" y2="0.9" width="0.254" layer="94"/>
<wire x1="2.6" y1="0.9" x2="3" y2="-1" width="0.254" layer="94"/>
<wire x1="3" y1="-1" x2="3.5" y2="0.8" width="0.254" layer="94"/>
<wire x1="3.5" y1="0.8" x2="4" y2="0" width="0.254" layer="94"/>
<wire x1="4" y1="0" x2="5" y2="0" width="0.254" layer="94"/>
<pin name="P$1" x="-4" y="0" length="middle"/>
<pin name="P$2" x="9" y="0" length="middle" rot="R180"/>
</symbol>
<symbol name="1N5820">
<wire x1="0" y1="0" x2="3" y2="0" width="0.254" layer="94"/>
<wire x1="3" y1="0" x2="3" y2="2" width="0.254" layer="94"/>
<wire x1="3" y1="0" x2="3" y2="-2" width="0.254" layer="94"/>
<wire x1="3" y1="-2" x2="5" y2="0" width="0.254" layer="94"/>
<wire x1="5" y1="0" x2="3" y2="2" width="0.254" layer="94"/>
<wire x1="5" y1="0" x2="5" y2="2" width="0.254" layer="94"/>
<wire x1="5" y1="2" x2="4.3" y2="2" width="0.254" layer="94"/>
<wire x1="4.3" y1="2" x2="4.3" y2="1.6" width="0.254" layer="94"/>
<wire x1="5" y1="0" x2="5" y2="-2" width="0.254" layer="94"/>
<wire x1="5" y1="-2" x2="5.8" y2="-2" width="0.254" layer="94"/>
<wire x1="5.8" y1="-2" x2="5.8" y2="-1.3" width="0.254" layer="94"/>
<pin name="P$1" x="-2" y="0" length="middle"/>
<pin name="P$2" x="10" y="0" length="middle" rot="R180"/>
<text x="1.5" y="0.4" size="1.27" layer="94">+</text>
<text x="5.7" y="0.5" size="1.27" layer="94">-</text>
</symbol>
<symbol name="1572-1039-CIN">
<wire x1="0" y1="0" x2="2" y2="0" width="0.254" layer="94"/>
<wire x1="2" y1="0" x2="2" y2="2" width="0.254" layer="94"/>
<wire x1="2" y1="-2" x2="2" y2="0" width="0.254" layer="94"/>
<wire x1="5" y1="-2" x2="5" y2="2.1" width="0.254" layer="94" curve="-180"/>
<text x="0.5" y="0.4" size="1.27" layer="94">+</text>
<pin name="P$1" x="-3" y="0" length="middle"/>
<pin name="P$2" x="8" y="0" length="middle" rot="R180"/>
</symbol>
<symbol name="M10144">
<wire x1="0" y1="0" x2="1" y2="0" width="0.254" layer="94"/>
<wire x1="1" y1="0" x2="3" y2="0" width="0.254" layer="94" curve="-180"/>
<wire x1="3" y1="0" x2="5" y2="0" width="0.254" layer="94" curve="-180"/>
<wire x1="5" y1="0" x2="7" y2="0" width="0.254" layer="94" curve="-180"/>
<wire x1="7" y1="0" x2="8" y2="0" width="0.254" layer="94"/>
<pin name="P$1" x="12" y="0" length="middle" rot="R180"/>
<pin name="P$2" x="-4" y="0" length="middle"/>
</symbol>
<symbol name="1572-1055-COUT">
<wire x1="0" y1="-2" x2="0" y2="0" width="0.254" layer="94"/>
<wire x1="0" y1="0" x2="0" y2="2" width="0.254" layer="94"/>
<wire x1="3" y1="2" x2="3" y2="-2" width="0.254" layer="94" curve="180"/>
<wire x1="0" y1="0" x2="-1" y2="0" width="0.254" layer="94"/>
<pin name="P$1" x="-5" y="0" length="middle"/>
<pin name="P$2" x="6" y="0" length="middle" rot="R180"/>
<text x="-1.4" y="0.4" size="1.27" layer="94">+</text>
</symbol>
<symbol name="+">
<pin name="P$1" x="-6" y="0" length="middle"/>
<pin name="P$2" x="5" y="0" length="middle" rot="R180"/>
</symbol>
</symbols>
<devicesets>
<deviceset name="CPF11K0000KFEE6-R1">
<gates>
<gate name="G$1" symbol="CPF11K0000FKEE6-R1" x="-3.048" y="-0.254"/>
</gates>
<devices>
<device name="" package="CPF11K0000FKEE6-R1">
<connects>
<connect gate="G$1" pin="P$1" pad="P$1"/>
<connect gate="G$1" pin="P$2" pad="P$2"/>
</connects>
<technologies>
<technology name=""/>
</technologies>
</device>
</devices>
</deviceset>
<deviceset name="CF18JT6K20CT">
<gates>
<gate name="G$1" symbol="CF18JT6K20CT-R2" x="-2.6" y="-0.2"/>
</gates>
<devices>
<device name="" package="CF18JT6K20CT">
<connects>
<connect gate="G$1" pin="P$1" pad="P$1"/>
<connect gate="G$1" pin="P$2" pad="P$2"/>
</connects>
<technologies>
<technology name=""/>
</technologies>
</device>
</devices>
</deviceset>
<deviceset name="1N5820">
<gates>
<gate name="G$1" symbol="1N5820" x="-4" y="0"/>
</gates>
<devices>
<device name="" package="1N5820">
<connects>
<connect gate="G$1" pin="P$1" pad="P$1"/>
<connect gate="G$1" pin="P$2" pad="P$2"/>
</connects>
<technologies>
<technology name=""/>
</technologies>
</device>
</devices>
</deviceset>
<deviceset name="1572-1039-CIN">
<gates>
<gate name="G$1" symbol="1572-1039-CIN" x="-2" y="0"/>
</gates>
<devices>
<device name="" package="1572-1039-CIN">
<connects>
<connect gate="G$1" pin="P$1" pad="P$1"/>
<connect gate="G$1" pin="P$2" pad="P$2"/>
</connects>
<technologies>
<technology name=""/>
</technologies>
</device>
</devices>
</deviceset>
<deviceset name="M10144">
<gates>
<gate name="G$1" symbol="M10144" x="-4" y="0.1"/>
</gates>
<devices>
<device name="" package="M10144">
<connects>
<connect gate="G$1" pin="P$1" pad="P$1"/>
<connect gate="G$1" pin="P$2" pad="P$2"/>
</connects>
<technologies>
<technology name=""/>
</technologies>
</device>
</devices>
</deviceset>
<deviceset name="NF123G-302">
<gates>
<gate name="G$1" symbol="NF123G-302" x="0" y="0"/>
</gates>
<devices>
<device name="" package="NF123G-302">
<connects>
<connect gate="G$1" pin="P$1" pad="P$1"/>
<connect gate="G$1" pin="P$2" pad="P$2"/>
</connects>
<technologies>
<technology name=""/>
</technologies>
</device>
</devices>
</deviceset>
<deviceset name="1572-1055-COUT">
<gates>
<gate name="G$1" symbol="1572-1055-COUT" x="-0.9" y="0"/>
</gates>
<devices>
<device name="" package="1572-1055-COUT">
<connects>
<connect gate="G$1" pin="P$1" pad="P$1"/>
<connect gate="G$1" pin="P$2" pad="P$2"/>
</connects>
<technologies>
<technology name=""/>
</technologies>
</device>
</devices>
</deviceset>
<deviceset name="+-">
<gates>
<gate name="G$1" symbol="+" x="0" y="0"/>
</gates>
<devices>
<device name="" package="+-">
<connects>
<connect gate="G$1" pin="P$1" pad="P$1"/>
<connect gate="G$1" pin="P$2" pad="P$2"/>
</connects>
<technologies>
<technology name=""/>
</technologies>
</device>
</devices>
</deviceset>
</devicesets>
</library>
</drawing>
</eagle>
