 0
SECTION
 2
HEADER
 0
ENDSEC
 0
SECTION
 2
TABLES
 0
ENDSEC
 0
SECTION
 2
BLOCKS
0
BLOCK
70
0
2
DIODE_1N5408G-T_DIO
10
0
20
0
30
0
999
##### Poly 15 ####
0
POLYLINE
5
36
70
1
8
8
6
CONTINUOUS
66
1
10
0
20
0
30
0
39
.209
0
VERTEX
8
8
6
CONTINUOUS
 10
-.0505
 20
-.0505
 30
0
0
VERTEX
8
8
6
CONTINUOUS
 10
-.0505
 20
.0505
 30
0
0
VERTEX
8
8
6
CONTINUOUS
 10
.19473
 20
.0505
 30
0
0
VERTEX
8
8
6
CONTINUOUS
 10
.19473
 20
.1145
 30
0
0
VERTEX
8
8
6
CONTINUOUS
 10
.58873
 20
.1145
 30
0
0
VERTEX
8
8
6
CONTINUOUS
 10
.58873
 20
.0505
 30
0
0
VERTEX
8
8
6
CONTINUOUS
 10
.83396
 20
.0505
 30
0
0
VERTEX
8
8
6
CONTINUOUS
 10
.83396
 20
-.0505
 30
0
0
VERTEX
8
8
6
CONTINUOUS
 10
.58873
 20
-.0505
 30
0
0
VERTEX
8
8
6
CONTINUOUS
 10
.58873
 20
-.1145
 30
0
0
VERTEX
8
8
6
CONTINUOUS
 10
.19473
 20
-.1145
 30
0
0
VERTEX
8
8
6
CONTINUOUS
 10
.19473
 20
-.0505
 30
0
0
SEQEND
999
##### Poly 21 ####
0
POLYLINE
5
36
70
1
8
8
6
CONTINUOUS
66
1
10
0
20
0
30
0
39
.209
0
VERTEX
8
8
6
CONTINUOUS
 10
.20473
 20
-.1045
 30
0
0
VERTEX
8
8
6
CONTINUOUS
 10
.20473
 20
.1045
 30
0
0
VERTEX
8
8
6
CONTINUOUS
 10
.57873
 20
.1045
 30
0
0
VERTEX
8
8
6
CONTINUOUS
 10
.57873
 20
-.1045
 30
0
0
SEQEND
0
3DFACE
5
49
8
0
6
CONTINUOUS
 10
.20473
 20
-.1045
 30
.209
 11
.20473
 21
.1045
 31
.209
 12
.57873
 22
.1045
 32
.209
 13
.57873
 23
-.1045
 33
.209
0
3DFACE
5
49
8
0
6
CONTINUOUS
 10
.20473
 20
-.1045
 30
0
 11
.20473
 21
.1045
 31
0
 12
.57873
 22
.1045
 32
0
 13
.57873
 23
-.1045
 33
0
999
##### Poly 35 ####
0
POLYLINE
5
36
70
1
8
23
6
CONTINUOUS
66
1
10
0
20
0
30
0
39
.209
0
VERTEX
8
23
6
CONTINUOUS
 10
-.0655
 20
-.1145
 30
0
0
VERTEX
8
23
6
CONTINUOUS
 10
-.0655
 20
.1145
 30
0
0
VERTEX
8
23
6
CONTINUOUS
 10
.84896
 20
.1145
 30
0
0
VERTEX
8
23
6
CONTINUOUS
 10
.84896
 20
-.1145
 30
0
0
SEQEND
0
3DFACE
5
49
8
0
6
CONTINUOUS
 10
-.0655
 20
-.1145
 30
.209
 11
-.0655
 21
.1145
 31
.209
 12
.84896
 22
.1145
 32
.209
 13
.84896
 23
-.1145
 33
.209
0
3DFACE
5
49
8
0
6
CONTINUOUS
 10
-.0655
 20
-.1145
 30
0
 11
-.0655
 21
.1145
 31
0
 12
.84896
 22
.1145
 32
0
 13
.84896
 23
-.1145
 33
0
0
ENDBLK
0
ENDSEC
0
SECTION
2
ENTITIES
 0
INSERT
 8
0
 2
DIODE_1N5408G-T_DIO
 10
.39173
 20
0
 30
0
 41
1
 42
1
 43
1
0
ENDSEC
 0
EOF

